<svg width="60" height="60" viewBox="0 0 60 60" version="1.1" xmlns="http://www.w3.org/2000/svg" xmlns:xlink="http://www.w3.org/1999/xlink">
<title>ico_pertambangan</title>
<desc>Created using Figma</desc>
<g id="Canvas" transform="translate(17 -6558)">
<g id="ico_pertambangan">
<g id="Ellipse">
<use xlink:href="#path0_fill" transform="translate(-17 6558)" fill="#F1F7FF"/>
</g>
<g id="noun_1305921">
<g id="Group">
<g id="Vector">
<use xlink:href="#path1_fill" transform="translate(-7.58593 6572.33)" fill="#0052A8"/>
</g>
<g id="Vector">
<use xlink:href="#path2_fill" transform="translate(11.9821 6558)" fill="#0052A8"/>
</g>
<g id="Vector">
<use xlink:href="#path3_fill" transform="matrix(0.924269 -0.381666 0.383936 0.923328 1.0351 6560.57)" fill="#0052A8"/>
</g>
<g id="Vector">
<use xlink:href="#path4_fill" transform="translate(-8.08725 6565.69)" fill="#0052A8"/>
</g>
<g id="Vector">
<use xlink:href="#path5_fill" transform="matrix(-0.924369 -0.381566 0.383836 -0.923429 -5.55195 6580.14)" fill="#0052A8"/>
</g>
<g id="Vector">
<use xlink:href="#path6_fill" transform="translate(30.7732 6574.78)" fill="#0052A8"/>
</g>
<g id="Vector">
<use xlink:href="#path7_fill" transform="translate(26.1815 6565.69)" fill="#0052A8"/>
</g>
<g id="Vector">
<use xlink:href="#path8_fill" transform="matrix(0.383836 -0.923429 0.924369 0.381566 19.5835 6568.21)" fill="#0052A8"/>
</g>
<g id="Vector">
<use xlink:href="#path9_fill" transform="translate(-1.86936 6588.08)" fill="#0052A8"/>
</g>
<g id="Vector">
<use xlink:href="#path10_fill" transform="translate(6.74701 6588.08)" fill="#0052A8"/>
</g>
<g id="Vector">
<use xlink:href="#path11_fill" transform="translate(15.3634 6588.08)" fill="#0052A8"/>
</g>
<g id="Vector">
<use xlink:href="#path12_fill" transform="translate(23.9797 6588.08)" fill="#0052A8"/>
</g>
</g>
</g>
</g>
</g>
<defs>
<path id="path0_fill" d="M 60 30C 60 46.5685 46.5685 60 30 60C 13.4315 60 0 46.5685 0 30C 0 13.4315 13.4315 0 30 0C 46.5685 0 60 13.4315 60 30Z"/>
<path id="path1_fill" d="M 37.177 12.3854C 35.07 5.23592 28.4317 -3.20095e-07 20.5857 -3.20095e-07C 12.7397 -3.20095e-07 6.10144 5.23658 3.99439 12.3854L 4.81814e-07 12.3854L 4.46145 29.1578L 1.09727 29.1578L 1.09727 34.7254L 8.18744 34.7254C 6.57903 35.6439 5.49031 37.3686 5.49031 39.3445C 5.49031 42.2801 7.88681 44.6682 10.8326 44.6682C 13.7784 44.6682 16.1749 42.2801 16.1749 39.3445C 16.1749 37.3686 15.0868 35.6439 13.4778 34.7254L 27.6936 34.7254C 26.0852 35.6439 24.9965 37.3686 24.9965 39.3445C 24.9965 42.2801 27.393 44.6682 30.3388 44.6682C 33.2846 44.6682 35.6811 42.2801 35.6811 39.3445C 35.6811 37.3686 34.593 35.6439 32.984 34.7254L 40.0741 34.7254L 40.0741 29.1578L 36.7099 29.1578L 41.1707 12.3854L 37.177 12.3854ZM 20.5857 2.02894C 27.297 2.02894 33.0063 6.372 35.0417 12.3854L 6.12973 12.3854C 8.16507 6.372 13.8738 2.02894 20.5857 2.02894ZM 14.1724 39.3445C 14.1724 41.1794 12.6739 42.6721 10.8326 42.6721C 8.99132 42.6721 7.49277 41.1794 7.49277 39.3445C 7.49277 37.5096 8.99132 36.0169 10.8326 36.0169C 12.6739 36.0169 14.1724 37.5096 14.1724 39.3445ZM 33.6786 39.3445C 33.6786 41.1794 32.1801 42.6721 30.3388 42.6721C 28.4975 42.6721 26.999 41.1794 26.999 39.3445C 26.999 37.5096 28.4975 36.0169 30.3388 36.0169C 32.1801 36.0169 33.6786 37.5096 33.6786 39.3445ZM 38.0381 31.1867L 38.0381 32.6958L 3.13328 32.6958L 3.13328 31.1867L 7.10793 31.1867L 34.0641 31.1867L 38.0381 31.1867ZM 34.6035 29.1578L 6.56785 29.1578L 2.64648 14.4144L 38.5249 14.4144L 34.6035 29.1578Z"/>
<path id="path2_fill" d="M 2.03601 0L 1.01767 0L -5.82192e-07 0L -5.82192e-07 9.11222L 2.03601 9.11222L 2.03601 0Z"/>
<path id="path3_fill" d="M 2.03497 0L 0 0L 0 9.11753L 2.03497 9.11753L 2.03497 0Z"/>
<path id="path4_fill" d="M 7.90523 6.44346L 1.44001 6.00179e-08L -2.00756e-07 1.43501L 6.46588 7.87847L 7.18556 7.16129L 7.90523 6.44346Z"/>
<path id="path5_fill" d="M 9.1393 0L 0 0L 0 2.02998L 9.1393 2.02998L 9.1393 0Z"/>
<path id="path6_fill" d="M 8.44795 6.10182e-07L -1.48559e-06 3.4869L 0.38944 4.42434L 0.779539 5.36113L 9.22682 1.87423L 8.44795 6.10182e-07Z"/>
<path id="path7_fill" d="M 7.90523 1.43501L 6.46522 6.00179e-08L 1.32499e-06 6.44346L 0.719676 7.16129L 1.43935 7.87847L 7.90523 1.43501Z"/>
<path id="path8_fill" d="M 9.11753 0L 0 0L 0 2.03497L 9.11753 2.03497L 9.11753 0Z"/>
<path id="path9_fill" d="M 1.94457 3.87564C 3.01852 3.87564 3.88913 3.00805 3.88913 1.93782C 3.88913 0.867593 3.01852 0 1.94457 0C 0.870613 0 0 0.867593 0 1.93782C 0 3.00805 0.870613 3.87564 1.94457 3.87564Z"/>
<path id="path10_fill" d="M 1.94457 3.87564C 3.01852 3.87564 3.88913 3.00805 3.88913 1.93782C 3.88913 0.867593 3.01852 0 1.94457 0C 0.870612 0 0 0.867593 0 1.93782C 0 3.00805 0.870612 3.87564 1.94457 3.87564Z"/>
<path id="path11_fill" d="M 1.94457 3.87564C 3.01852 3.87564 3.88913 3.00805 3.88913 1.93782C 3.88913 0.867593 3.01852 0 1.94457 0C 0.870612 0 0 0.867593 0 1.93782C 0 3.00805 0.870612 3.87564 1.94457 3.87564Z"/>
<path id="path12_fill" d="M 1.94457 3.87564C 3.01852 3.87564 3.88913 3.00805 3.88913 1.93782C 3.88913 0.867593 3.01852 0 1.94457 0C 0.870614 0 0 0.867593 0 1.93782C 0 3.00805 0.870614 3.87564 1.94457 3.87564Z"/>
</defs>
</svg>
