<svg width="60" height="60" viewBox="0 0 60 60" version="1.1" xmlns="http://www.w3.org/2000/svg" xmlns:xlink="http://www.w3.org/1999/xlink">
<title>ico_jasa_survey</title>
<desc>Created using Figma</desc>
<g id="Canvas" transform="translate(-312 -6330)">
<g id="ico_jasa_survey">
<g id="Ellipse">
<use xlink:href="#path0_fill" transform="translate(312 6330)" fill="#0052A8"/>
</g>
<g id="noun_1219509">
<g id="Vector">
<use xlink:href="#path1_fill" transform="translate(320 6331)" fill="#F1F7FF"/>
</g>
<g id="Vector">
<use xlink:href="#path2_fill" transform="translate(333.221 6353.5)" fill="#F1F7FF"/>
</g>
<g id="Vector">
<use xlink:href="#path3_fill" transform="translate(333.221 6360.7)" fill="#F1F7FF"/>
</g>
</g>
</g>
</g>
<defs>
<path id="path0_fill" d="M 60 30C 60 46.5685 46.5685 60 30 60C 13.4315 60 0 46.5685 0 30C 0 13.4315 13.4315 0 30 0C 46.5685 0 60 13.4315 60 30Z"/>
<path id="path1_fill" d="M 45 10.7951C 45 9.52196 44.503 8.30094 43.6182 7.40067C 42.7335 6.5004 41.5336 5.99463 40.2824 5.99463L 33.206 5.99463C 33.1974 5.15812 33.0191 4.33243 32.6822 3.56934C 32.3453 2.80626 31.8571 2.12223 31.2482 1.56016C 30.1549 0.556013 28.7346 0.000114244 27.2618 -5.72265e-09L 17.7441 -5.72265e-09C 16.2713 0.000114244 14.8509 0.556013 13.7577 1.56016C 13.1477 2.1217 12.6584 2.80549 12.3205 3.5686C 11.9826 4.33172 11.8033 5.15767 11.794 5.99463L 4.7176 5.99463C 3.46641 5.99463 2.26647 6.5004 1.38175 7.40067C 0.497032 8.30094 -2.02457e-07 9.52196 -2.02457e-07 10.7951L -2.02457e-07 52.1995C -2.02457e-07 53.4727 0.497032 54.6937 1.38175 55.594C 2.26647 56.4942 3.46641 57 4.7176 57L 40.2824 57C 41.5336 57 42.7335 56.4942 43.6182 55.594C 44.503 54.6937 45 53.4727 45 52.1995L 45 10.7951ZM 14.141 8.39488L 14.1823 8.39488L 14.1823 5.99463L 14.1469 5.99463C 14.1543 5.49301 14.2628 4.99826 14.4657 4.54102C 14.6685 4.08377 14.9614 3.67376 15.3263 3.33635C 15.9894 2.72786 16.8512 2.39206 17.7441 2.39425L 27.2382 2.39425C 28.1243 2.39486 28.9789 2.72819 29.6383 3.33035C 30.0112 3.67527 30.3088 4.09595 30.512 4.56521C 30.7151 5.03447 30.8193 5.54187 30.8177 6.05464L 30.8177 13.1954L 14.1351 13.1954L 14.141 8.39488ZM 12.9616 15.5956L 32.0266 15.5956C 32.3394 15.5956 32.6394 15.4692 32.8606 15.2441C 33.0817 15.0191 33.206 14.7138 33.206 14.3955L 33.206 13.7114L 35.1579 13.7114C 35.3143 13.7114 35.4643 13.7747 35.5749 13.8872C 35.6855 13.9997 35.7476 14.1524 35.7476 14.3115L 35.7476 37.1139L 28.5061 37.1139C 27.7241 37.1139 26.9741 37.43 26.4212 37.9927C 25.8682 38.5553 25.5576 39.3185 25.5576 40.1142L 25.5576 48.0831L 9.8244 48.0831C 9.668 48.0831 9.51801 48.0198 9.40742 47.9073C 9.29683 47.7948 9.2347 47.6421 9.2347 47.483L 9.2347 14.3115C 9.2347 14.1524 9.29683 13.9997 9.40742 13.8872C 9.51801 13.7747 9.668 13.7114 9.8244 13.7114L 11.7763 13.7114L 11.7763 14.3955C 11.7763 14.7138 11.9006 15.0191 12.1217 15.2441C 12.3429 15.4692 12.6429 15.5956 12.9557 15.5956L 12.9616 15.5956ZM 34.5387 39.5382L 27.9164 46.4149L 27.9164 40.1382C 27.9164 39.9791 27.9785 39.8265 28.0891 39.7139C 28.1997 39.6014 28.3497 39.5382 28.5061 39.5382L 34.5387 39.5382ZM 42.6412 52.1995C 42.6412 52.8361 42.3927 53.4466 41.9503 53.8967C 41.508 54.3469 40.908 54.5997 40.2824 54.5997L 4.69991 54.5997C 4.07432 54.5997 3.47435 54.3469 3.03199 53.8967C 2.58962 53.4466 2.34111 52.8361 2.34111 52.1995L 2.34111 10.7951C 2.34111 10.1586 2.58962 9.54804 3.03199 9.0979C 3.47435 8.64777 4.07432 8.39488 4.69991 8.39488L 11.7763 8.39488L 11.7763 11.3112L 9.8244 11.3112C 9.04241 11.3112 8.29245 11.6273 7.7395 12.19C 7.18655 12.7526 6.8759 13.5158 6.8759 14.3115L 6.8759 47.483C 6.8759 48.2787 7.18655 49.0419 7.7395 49.6045C 8.29245 50.1672 9.04241 50.4833 9.8244 50.4833L 27.3031 50.4833L 38.1064 39.2621L 38.1064 14.3115C 38.1064 13.5158 37.7958 12.7526 37.2428 12.19C 36.6899 11.6273 35.9399 11.3112 35.1579 11.3112L 33.206 11.3112L 33.206 8.39488L 40.2824 8.39488C 40.908 8.39488 41.508 8.64777 41.9503 9.0979C 42.3927 9.54804 42.6412 10.1586 42.6412 10.7951L 42.6412 52.1995Z"/>
<path id="path2_fill" d="M 1.1794 2.40025L 8.03171 2.40025C 8.34451 2.40025 8.64449 2.27381 8.86567 2.04874C 9.08685 1.82368 9.21111 1.51842 9.21111 1.20013C 9.21111 0.881833 9.08685 0.576575 8.86567 0.351508C 8.64449 0.126441 8.34451 0 8.03171 0L 1.1794 0C 0.866603 0 0.566619 0.126441 0.345439 0.351508C 0.124258 0.576575 -7.19849e-07 0.881833 -7.19849e-07 1.20013C -7.19849e-07 1.51842 0.124258 1.82368 0.345439 2.04874C 0.566619 2.27381 0.866603 2.40025 1.1794 2.40025Z"/>
<path id="path3_fill" d="M 1.1794 2.40025L 16.8772 2.40025C 17.19 2.40025 17.49 2.27381 17.7112 2.04874C 17.9324 1.82368 18.0566 1.51842 18.0566 1.20013C 18.0566 0.881833 17.9324 0.576575 17.7112 0.351508C 17.49 0.126441 17.19 0 16.8772 0L 1.1794 0C 0.866603 0 0.566619 0.126441 0.345439 0.351508C 0.124258 0.576575 -7.19849e-07 0.881833 -7.19849e-07 1.20013C -7.19849e-07 1.51842 0.124258 1.82368 0.345439 2.04874C 0.566619 2.27381 0.866603 2.40025 1.1794 2.40025Z"/>
</defs>
</svg>
