<svg width="38" height="38" viewBox="0 0 38 38" version="1.1" xmlns="http://www.w3.org/2000/svg" xmlns:xlink="http://www.w3.org/1999/xlink">
<title>ico-tabs-profile</title>
<desc>Created using Figma</desc>
<g id="Canvas" transform="translate(293 -4987)">
<clipPath id="clip-0" clip-rule="evenodd">
<path d="M -598 4405L -238 4405L -238 5045L -598 5045L -598 4405Z" fill="#FFFFFF"/>
</clipPath>
<g id="Riwayat Eviden" clip-path="url(#clip-0)">
<g id="Menu Bar">
<g id="Profil">
<g id="Tidak Aktif">
<g id="np_user_930349_000000">
<g id="Vector">
<use xlink:href="#path0_fill" transform="translate(-284 4994)" fill="#828282"/>
</g>
</g>
</g>
</g>
</g>
</g>
</g>
<defs>
<path id="path0_fill" d="M 20.8937 19.3357C 20.7575 19.0328 20.6214 18.9214 20.4319 18.7892C 19.042 17.8181 15.1332 15.5906 10.5416 15.5639L 10.5416 15.5609C 10.5283 15.5609 10.515 15.5624 10.5002 15.5624C 10.4868 15.5624 10.4735 15.5609 10.4587 15.5609L 10.4587 15.5639C 5.86748 15.5906 1.95676 17.8181 0.568434 18.7892C 0.377498 18.9229 0.242811 19.0328 0.105142 19.3357C -0.00586707 19.5837 5.52973e-05 20.0886 5.52973e-05 20.0886L 5.52973e-05 24L 20.9999 24L 20.9999 20.0871C 20.9999 20.0871 21.0059 19.5822 20.8934 19.3357L 20.8937 19.3357ZM 10.4381 12.7055C 13.4353 12.7055 15.8656 9.86174 15.8656 6.35273C 15.8656 2.84373 13.4352 5.80067e-09 10.4381 5.80067e-09C 7.44084 5.80067e-09 5.0106 2.84373 5.0106 6.35273C 5.00912 9.86174 7.43948 12.7055 10.4381 12.7055L 10.4381 12.7055Z"/>
</defs>
</svg>
